<?xml version="1.0" encoding="UTF-8"?>
<testng-results ignored="0" total="5" passed="5" failed="0" skipped="0">
  <reporter-output>
  </reporter-output>
  <suite started-at="2024-05-07T07:56:26 IST" name="Suite_Retry" finished-at="2024-05-07T07:56:35 IST" duration-ms="8547">
    <groups>
    </groups>
    <test started-at="2024-05-07T07:56:26 IST" name="Post_Test_Retry" finished-at="2024-05-07T07:56:35 IST" duration-ms="8547">
      <class name="TestScripts.Get_TestScript">
        <test-method is-config="true" signature="setUp()[pri:0, instance:TestScripts.Get_TestScript@793f29ff]" started-at="2024-05-07T07:56:27 IST" name="setUp" finished-at="2024-05-07T07:56:27 IST" duration-ms="2" status="PASS">
          <reporter-output>
          </reporter-output>
        </test-method> <!-- setUp -->
        <test-method signature="validate_Get_Method()[pri:0, instance:TestScripts.Get_TestScript@793f29ff]" started-at="2024-05-07T07:56:33 IST" name="validate_Get_Method" description="Validate the responseBody parameters of Get_TC_1" finished-at="2024-05-07T07:56:35 IST" duration-ms="1169" status="PASS">
          <reporter-output>
          </reporter-output>
        </test-method> <!-- validate_Get_Method -->
        <test-method is-config="true" signature="tearDown()[pri:0, instance:TestScripts.Get_TestScript@793f29ff]" started-at="2024-05-07T07:56:35 IST" name="tearDown" finished-at="2024-05-07T07:56:35 IST" duration-ms="2" status="PASS">
          <reporter-output>
          </reporter-output>
        </test-method> <!-- tearDown -->
      </class> <!-- TestScripts.Get_TestScript -->
      <class name="TestScripts.Put_Test_Script">
        <test-method is-config="true" signature="setUp()[pri:0, instance:TestScripts.Put_Test_Script@3e8c3cb]" started-at="2024-05-07T07:56:27 IST" name="setUp" finished-at="2024-05-07T07:56:27 IST" duration-ms="2" status="PASS">
          <reporter-output>
          </reporter-output>
        </test-method> <!-- setUp -->
        <test-method signature="validate_Put_Method()[pri:0, instance:TestScripts.Put_Test_Script@3e8c3cb]" started-at="2024-05-07T07:56:35 IST" name="validate_Put_Method" description="Validate the responseBody parameters of Put_TC_1" finished-at="2024-05-07T07:56:35 IST" duration-ms="435" status="PASS">
          <reporter-output>
          </reporter-output>
        </test-method> <!-- validate_Put_Method -->
        <test-method is-config="true" signature="teardown()[pri:0, instance:TestScripts.Put_Test_Script@3e8c3cb]" started-at="2024-05-07T07:56:35 IST" name="teardown" finished-at="2024-05-07T07:56:35 IST" duration-ms="3" status="PASS">
          <reporter-output>
          </reporter-output>
        </test-method> <!-- teardown -->
      </class> <!-- TestScripts.Put_Test_Script -->
      <class name="TestScripts.Patch_Test_Script">
        <test-method is-config="true" signature="setUp()[pri:0, instance:TestScripts.Patch_Test_Script@5d0bf09b]" started-at="2024-05-07T07:56:27 IST" name="setUp" finished-at="2024-05-07T07:56:27 IST" duration-ms="2" status="PASS">
          <reporter-output>
          </reporter-output>
        </test-method> <!-- setUp -->
        <test-method signature="validate_Patch_Method()[pri:0, instance:TestScripts.Patch_Test_Script@5d0bf09b]" started-at="2024-05-07T07:56:33 IST" name="validate_Patch_Method" description="Validate the responseBody parameters of Patch_TC_1" finished-at="2024-05-07T07:56:33 IST" duration-ms="514" status="PASS">
          <reporter-output>
          </reporter-output>
        </test-method> <!-- validate_Patch_Method -->
        <test-method is-config="true" signature="tearDown()[pri:0, instance:TestScripts.Patch_Test_Script@5d0bf09b]" started-at="2024-05-07T07:56:35 IST" name="tearDown" finished-at="2024-05-07T07:56:35 IST" duration-ms="2" status="PASS">
          <reporter-output>
          </reporter-output>
        </test-method> <!-- tearDown -->
      </class> <!-- TestScripts.Patch_Test_Script -->
      <class name="TestScripts.Post_Test_Script">
        <test-method is-config="true" signature="setUp()[pri:0, instance:TestScripts.Post_Test_Script@248e319b]" started-at="2024-05-07T07:56:27 IST" name="setUp" finished-at="2024-05-07T07:56:27 IST" duration-ms="2" status="PASS">
          <reporter-output>
          </reporter-output>
        </test-method> <!-- setUp -->
        <test-method signature="validate_Post_Method()[pri:0, instance:TestScripts.Post_Test_Script@248e319b]" started-at="2024-05-07T07:56:31 IST" name="validate_Post_Method" description="Validate the responseBody parameters of Post_TC_1" finished-at="2024-05-07T07:56:33 IST" duration-ms="1965" status="PASS">
          <reporter-output>
          </reporter-output>
        </test-method> <!-- validate_Post_Method -->
        <test-method is-config="true" signature="teardown()[pri:0, instance:TestScripts.Post_Test_Script@248e319b]" started-at="2024-05-07T07:56:35 IST" name="teardown" finished-at="2024-05-07T07:56:35 IST" duration-ms="3" status="PASS">
          <reporter-output>
          </reporter-output>
        </test-method> <!-- teardown -->
      </class> <!-- TestScripts.Post_Test_Script -->
      <class name="TestScripts.Delete_Test_Script">
        <test-method is-config="true" signature="setUp()[pri:0, instance:TestScripts.Delete_Test_Script@7674f035]" started-at="2024-05-07T07:56:26 IST" name="setUp" finished-at="2024-05-07T07:56:27 IST" duration-ms="74" status="PASS">
          <reporter-output>
          </reporter-output>
        </test-method> <!-- setUp -->
        <test-method signature="validate_Delete_Method()[pri:0, instance:TestScripts.Delete_Test_Script@7674f035]" started-at="2024-05-07T07:56:27 IST" name="validate_Delete_Method" description="Validate the responseBody parameters of Delete_TC_1" finished-at="2024-05-07T07:56:31 IST" duration-ms="4073" status="PASS">
          <reporter-output>
          </reporter-output>
        </test-method> <!-- validate_Delete_Method -->
        <test-method is-config="true" signature="tearDown()[pri:0, instance:TestScripts.Delete_Test_Script@7674f035]" started-at="2024-05-07T07:56:35 IST" name="tearDown" finished-at="2024-05-07T07:56:35 IST" duration-ms="5" status="PASS">
          <reporter-output>
          </reporter-output>
        </test-method> <!-- tearDown -->
      </class> <!-- TestScripts.Delete_Test_Script -->
    </test> <!-- Post_Test_Retry -->
  </suite> <!-- Suite_Retry -->
</testng-results>
