G:\Users\user\postman-workspace\newTestNG_Project\src\CommonMethods\API_Trigger.java
G:\Users\user\postman-workspace\newTestNG_Project\src\CommonMethods\ExtentListenerClass.java
G:\Users\user\postman-workspace\newTestNG_Project\src\CommonMethods\TestNG_Retry_Analyzer.java
G:\Users\user\postman-workspace\newTestNG_Project\src\CommonMethods\Utilities.java
G:\Users\user\postman-workspace\newTestNG_Project\src\EnvoirnmentAndRepository\Envoirnment.java
G:\Users\user\postman-workspace\newTestNG_Project\src\EnvoirnmentAndRepository\RequestRepository.java
G:\Users\user\postman-workspace\newTestNG_Project\src\TestScripts\Delete_Test_Script.java
G:\Users\user\postman-workspace\newTestNG_Project\src\TestScripts\Get_TestScript.java
G:\Users\user\postman-workspace\newTestNG_Project\src\TestScripts\Patch_Test_Script.java
G:\Users\user\postman-workspace\newTestNG_Project\src\TestScripts\Post_Test_Script.java
G:\Users\user\postman-workspace\newTestNG_Project\src\TestScripts\Put_Test_Script.java
G:\Users\user\postman-workspace\newTestNG_Project\src\TestScripts\zmockcls2.java
G:\Users\user\postman-workspace\newTestNG_Project\src\TestScripts\zpost.java
G:\Users\user\postman-workspace\newTestNG_Project\src\TestScripts\zPractice_Get_API.java
